# Blender MTL File: 'None'
# Material Count: 6

newmtl Corps
Ns 96.078431
Ka 1.000000 1.000000 1.000000
Kd 0.764227 0.775933 0.752622
Ks 0.500000 0.500000 0.500000
Ke 0.000000 0.000000 0.000000
Ni 1.000000
d 1.000000
illum 2
map_Bump -bm 0.350042 Monstrev5NORM.png

newmtl Mouth
Ns 96.078431
Ka 1.000000 1.000000 1.000000
Kd 0.558550 0.080434 0.065758
Ks 0.500000 0.500000 0.500000
Ke 0.000000 0.000000 0.000000
Ni 1.000000
d 1.000000
illum 2

newmtl Nose
Ns 96.078431
Ka 1.000000 1.000000 1.000000
Kd 0.000000 0.000000 0.000000
Ks 0.500000 0.500000 0.500000
Ke 0.000000 0.000000 0.000000
Ni 1.000000
d 1.000000
illum 2

newmtl Orbites
Ns 96.078431
Ka 1.000000 1.000000 1.000000
Kd 0.085227 0.085227 0.085227
Ks 0.500000 0.500000 0.500000
Ke 0.000000 0.000000 0.000000
Ni 1.000000
d 1.000000
illum 2

newmtl Tooth
Ns 96.078431
Ka 1.000000 1.000000 1.000000
Kd 0.413864 0.396095 0.213435
Ks 0.500000 0.500000 0.500000
Ke 0.000000 0.000000 0.000000
Ni 1.000000
d 1.000000
illum 2

newmtl Wound
Ns 96.078431
Ka 1.000000 1.000000 1.000000
Kd 0.640000 0.002142 0.000000
Ks 0.500000 0.500000 0.500000
Ke 0.000000 0.000000 0.000000
Ni 1.000000
d 1.000000
illum 2
